Src/fetcher/fetcher.vcd
$date
	Wed Apr 29 22:03:41 2026
$end
$version
	Icarus Verilog
$end
$timescale
	1ps
$end
$scope module fetcher $end
$var wire 1 ! clk $end
$var wire 1 " core_en $end
$var wire 32 # pc_value [31:0] $end
$var wire 32 $ resp_data [31:0] $end
$var wire 1 % resp_valid $end
$var wire 1 & rst $end
$var reg 1 ' done $end
$var reg 32 ( instruction [31:0] $end
$var reg 32 ) req_addr [31:0] $end
$var reg 1 * req_valid $end
$var reg 1 + state $end
$upscope $end
$enddefinitions $end
$comment Show the parameter values. $end
$dumpall
$end
#0
$dumpvars
0+
0*
b0 )
b0 (
0'
0&
z%
bz $
bz #
z"
1!
$end
#5000
0!
#10000
1!
#11000
b101 #
1"
#15000
0!
#20000
1+
1*
b101 )
1!
#21000
b11011110101011011011111011101111 $
1%
#25000
0!
#30000
0+
1'
b11011110101011011011111011101111 (
0*
1!
#31001
0'
b0 )
b0 (
1&
#36001
0!
#41001
0&
1!
#46001
0!
#51001
1+
1*
b101 )
1!
#56001
0!
#61001
0%
0+
1'
b11011110101011011011111011101111 (
0*
1!
#66001
0!
#71001
1+
1*
0'
1!
#76001
0!
#81001
0*
1!
#86001
0!
#91001
1!
#92001
b11001010111111101011101010111110 $
1%
#96001
0!
#101001
0+
1'
b11001010111111101011101010111110 (
1!
#102002
0'
b0 )
b0 (
1&
#107002
0!
#112002
0&
1!
#117002
0!
#122002
1+
1*
b101 )
1!
#127002
0!
#132002
b0 )
1&
0+
0'
b0 (
0*
1!
