Src/scheduler/scheduler.vcd
$date
	Wed May  6 13:54:35 2026
$end
$version
	Icarus Verilog
$end
$timescale
	1ps
$end
$scope module scheduler $end
$var wire 1 ! clk $end
$var wire 1 " core_start $end
$var wire 3 # current_state [2:0] $end
$var wire 1 $ fetcher_done $end
$var wire 4 % lsu_done [3:0] $end
$var wire 1 & mem_read_en $end
$var wire 1 ' mem_write_en $end
$var wire 1 ( ret $end
$var wire 1 ) rst $end
$var wire 1 * all_done $end
$var parameter 32 + NUM_CORES $end
$var parameter 32 , THREADS_PER_CORE $end
$var parameter 64 - TOTAL_THREADS $end
$var reg 1 . block_done $end
$var reg 1 / execute_en $end
$var reg 1 0 fetcher_en $end
$var reg 1 1 lsu_en $end
$var reg 3 2 state [2:0] $end
$var reg 1 3 write_back_en $end
$upscope $end
$enddefinitions $end
$comment Show the parameter values. $end
$dumpall
b100 -
b100 ,
b1 +
$end
#0
$dumpvars
03
b0 2
01
00
0/
0.
x*
0)
z(
z'
z&
bz %
z$
b0 #
1"
1!
$end
#5000
0!
#10000
0"
b1 #
b1 2
10
1!
#15000
0!
#20000
1$
00
1!
#25000
0!
#30000
0(
0'
0&
0$
b10 #
b10 2
1!
#35000
0!
#40000
b101 #
b101 2
1!
#45000
0!
#50000
b110 #
b110 2
1/
1!
#55000
0!
#60000
13
b1 #
b1 2
0/
1!
#65000
0!
#70000
03
1!
#75000
0!
#80000
1!
#80001
b0 #
b0 2
1)
#85001
0!
#90001
1"
0)
1!
#95001
0!
#100001
0"
b1 #
b1 2
10
1!
#105001
0!
#110001
1$
00
1!
#115001
0!
#120001
1&
0$
b10 #
b10 2
1!
#125001
0!
#130001
b11 #
b11 2
1!
#135001
0!
#140001
b100 #
b100 2
11
1!
#145001
0!
#150001
01
1!
#155001
0!
#160001
1*
b1111 %
1!
#165001
0!
#170001
b101 #
b101 2
1!
#175001
0!
#180001
b110 #
b110 2
1/
1!
#185001
0!
#190001
13
b1 #
b1 2
0/
1!
#190002
03
b0 #
b0 2
1)
#195002
0!
#200002
1"
0)
1!
#205002
0!
#210002
1(
0"
b1 #
b1 2
10
1!
#215002
0!
#220002
1$
00
1!
#225002
0!
#230002
0&
0$
b10 #
b10 2
1!
#235002
0!
#240002
b101 #
b101 2
1!
#245002
0!
#250002
b110 #
b110 2
1/
1!
#255002
0!
#260002
13
b0 #
b0 2
1.
0/
1!
