Src/lsu/lsu.vcd
$date
	Fri May  1 20:08:42 2026
$end
$version
	Icarus Verilog
$end
$timescale
	1ps
$end
$scope module lsu $end
$var wire 1 ! clk $end
$var wire 1 " core_en $end
$var wire 32 # mem_data_address [31:0] $end
$var wire 1 $ mem_read_en $end
$var wire 32 % mem_write_data [31:0] $end
$var wire 1 & mem_write_en $end
$var wire 32 ' resp_data [31:0] $end
$var wire 1 ( resp_valid $end
$var wire 1 ) rst $end
$var reg 1 * done $end
$var reg 1 + is_read $end
$var reg 32 , mem_read_data [31:0] $end
$var reg 1 - read_write_switch $end
$var reg 32 . req_addr [31:0] $end
$var reg 1 / req_valid $end
$var reg 1 0 state $end
$var reg 32 1 write_data [31:0] $end
$upscope $end
$enddefinitions $end
$comment Show the parameter values. $end
$dumpall
$end
#0
$dumpvars
bx 1
00
0/
b0 .
x-
b0 ,
0+
0*
1)
z(
bz '
0&
b0 %
0$
b0 #
1"
1!
$end
#5000
0!
#10000
b101010 #
1$
0)
1!
#15000
0!
#20000
10
1-
1/
b101010 .
1+
1!
#21000
1(
b10011010010 '
#25000
0!
#30000
00
1*
b10011010010 ,
b0 .
0/
1!
#31001
0+
0*
b0 ,
b0 #
0$
1)
#36001
0!
#41001
b1011000101110 %
b101010 #
1&
0)
1!
#46001
0!
#51001
10
b1011000101110 1
0-
1/
b101010 .
1!
#56001
0!
#61001
00
1*
b0 .
0/
1!
#62002
0*
b0 %
b0 #
0&
1)
#67002
0!
#72002
b101010 #
1$
0)
1!
#77002
0!
#82002
10
1-
1/
b101010 .
1+
1!
#83002
00
0+
b0 .
0/
1)
