Src/core/core.vcd
$date
	Sat May 16 05:30:01 2026
$end
$version
	Icarus Verilog
$end
$timescale
	1ps
$end
$scope module core $end
$var wire 32 ! blockDim [31:0] $end
$var wire 32 " blockIdx [31:0] $end
$var wire 1 # clk $end
$var wire 1 $ core_start $end
$var wire 4 % data_mem_resp_valid [3:0] $end
$var wire 32 & prog_mem_resp_data [31:0] $end
$var wire 1 ' prog_mem_resp_valid $end
$var wire 1 ( rst $end
$var wire 1 ) write_back_en_sched $end
$var wire 1 * write_back_en_dec $end
$var wire 5 + rs3_addr [4:0] $end
$var wire 5 , rs2_addr [4:0] $end
$var wire 5 - rs1_addr [4:0] $end
$var wire 1 . ret $end
$var wire 5 / rd_addr [4:0] $end
$var wire 1 0 prog_mem_req_valid $end
$var wire 32 1 prog_mem_req_addr [31:0] $end
$var wire 6 2 opcode [5:0] $end
$var wire 3 3 nzp_mask [2:0] $end
$var wire 1 4 nzp_en $end
$var wire 1 5 mem_write_en $end
$var wire 1 6 mem_read_en $end
$var wire 1 7 lsu_en $end
$var wire 4 8 lsu_done [3:0] $end
$var wire 32 9 instruction [31:0] $end
$var wire 16 : imm [15:0] $end
$var wire 1 ; fetcher_en $end
$var wire 1 < execute_en $end
$var wire 1 = done $end
$var wire 4 > data_mem_req_valid [3:0] $end
$var wire 4 ? data_mem_req_rw [3:0] $end
$var wire 3 @ current_state [2:0] $end
$var wire 23 A branch_offset [22:0] $end
$var wire 1 B branch_en $end
$var wire 1 C block_done $end
$var parameter 32 D THREADS_PER_CORE $end
$scope begin thread_gen[0] $end
$var parameter 2 E i $end
$scope module alu_inst $end
$var wire 6 F op_select [5:0] $end
$var wire 32 G operand3 [31:0] $end
$var wire 32 H operand2 [31:0] $end
$var wire 32 I operand1 [31:0] $end
$var reg 3 J nzp_flag [2:0] $end
$var reg 32 K result [31:0] $end
$upscope $end
$scope module lsu_inst $end
$var wire 1 # clk $end
$var wire 1 7 core_en $end
$var wire 32 L mem_data_address [31:0] $end
$var wire 1 6 mem_read_en $end
$var wire 1 5 mem_write_en $end
$var wire 32 M resp_data [31:0] $end
$var wire 1 N resp_valid $end
$var wire 1 ( rst $end
$var wire 32 O mem_write_data [31:0] $end
$var reg 1 P done $end
$var reg 1 Q is_read $end
$var reg 32 R mem_read_data [31:0] $end
$var reg 1 S read_write_switch $end
$var reg 32 T req_addr [31:0] $end
$var reg 1 U req_valid $end
$var reg 1 V state $end
$var reg 32 W write_data [31:0] $end
$upscope $end
$scope module pc_inst $end
$var wire 1 B branch_en $end
$var wire 23 X branch_offset [22:0] $end
$var wire 1 # clk $end
$var wire 1 4 nzp_en $end
$var wire 3 Y nzp_flag [2:0] $end
$var wire 3 Z nzp_mask [2:0] $end
$var wire 1 ( rst $end
$var reg 3 [ nzp_reg [2:0] $end
$var reg 32 \ pc_out [31:0] $end
$upscope $end
$scope module reg_file $end
$var wire 32 ] blockDim [31:0] $end
$var wire 32 ^ blockIdx [31:0] $end
$var wire 1 # clk $end
$var wire 5 _ r_addr1 [4:0] $end
$var wire 5 ` r_addr2 [4:0] $end
$var wire 5 a r_addr3 [4:0] $end
$var wire 1 ( rst $end
$var wire 32 b threadIdx [31:0] $end
$var wire 5 c w_addr [4:0] $end
$var wire 32 d w_data [31:0] $end
$var wire 1 ) w_en $end
$var reg 32 e r_data1 [31:0] $end
$var reg 32 f r_data2 [31:0] $end
$var reg 32 g r_data3 [31:0] $end
$scope begin $ivl_for_loop0 $end
$var integer 32 h i [31:0] $end
$upscope $end
$scope begin read_port_1 $end
$upscope $end
$scope begin read_port_2 $end
$upscope $end
$scope begin read_port_3 $end
$upscope $end
$upscope $end
$upscope $end
$scope begin thread_gen[1] $end
$var parameter 2 i i $end
$scope module alu_inst $end
$var wire 6 j op_select [5:0] $end
$var wire 32 k operand3 [31:0] $end
$var wire 32 l operand2 [31:0] $end
$var wire 32 m operand1 [31:0] $end
$var reg 3 n nzp_flag [2:0] $end
$var reg 32 o result [31:0] $end
$upscope $end
$scope module lsu_inst $end
$var wire 1 # clk $end
$var wire 1 7 core_en $end
$var wire 32 p mem_data_address [31:0] $end
$var wire 1 6 mem_read_en $end
$var wire 1 5 mem_write_en $end
$var wire 32 q resp_data [31:0] $end
$var wire 1 r resp_valid $end
$var wire 1 ( rst $end
$var wire 32 s mem_write_data [31:0] $end
$var reg 1 t done $end
$var reg 1 u is_read $end
$var reg 32 v mem_read_data [31:0] $end
$var reg 1 w read_write_switch $end
$var reg 32 x req_addr [31:0] $end
$var reg 1 y req_valid $end
$var reg 1 z state $end
$var reg 32 { write_data [31:0] $end
$upscope $end
$scope module pc_inst $end
$var wire 1 B branch_en $end
$var wire 23 | branch_offset [22:0] $end
$var wire 1 # clk $end
$var wire 1 4 nzp_en $end
$var wire 3 } nzp_flag [2:0] $end
$var wire 3 ~ nzp_mask [2:0] $end
$var wire 1 ( rst $end
$var reg 3 !" nzp_reg [2:0] $end
$var reg 32 "" pc_out [31:0] $end
$upscope $end
$scope module reg_file $end
$var wire 32 #" blockDim [31:0] $end
$var wire 32 $" blockIdx [31:0] $end
$var wire 1 # clk $end
$var wire 5 %" r_addr1 [4:0] $end
$var wire 5 &" r_addr2 [4:0] $end
$var wire 5 '" r_addr3 [4:0] $end
$var wire 1 ( rst $end
$var wire 32 (" threadIdx [31:0] $end
$var wire 5 )" w_addr [4:0] $end
$var wire 32 *" w_data [31:0] $end
$var wire 1 ) w_en $end
$var reg 32 +" r_data1 [31:0] $end
$var reg 32 ," r_data2 [31:0] $end
$var reg 32 -" r_data3 [31:0] $end
$scope begin $ivl_for_loop0 $end
$var integer 32 ." i [31:0] $end
$upscope $end
$scope begin read_port_1 $end
$upscope $end
$scope begin read_port_2 $end
$upscope $end
$scope begin read_port_3 $end
$upscope $end
$upscope $end
$upscope $end
$scope begin thread_gen[2] $end
$var parameter 3 /" i $end
$scope module alu_inst $end
$var wire 6 0" op_select [5:0] $end
$var wire 32 1" operand3 [31:0] $end
$var wire 32 2" operand2 [31:0] $end
$var wire 32 3" operand1 [31:0] $end
$var reg 3 4" nzp_flag [2:0] $end
$var reg 32 5" result [31:0] $end
$upscope $end
$scope module lsu_inst $end
$var wire 1 # clk $end
$var wire 1 7 core_en $end
$var wire 32 6" mem_data_address [31:0] $end
$var wire 1 6 mem_read_en $end
$var wire 1 5 mem_write_en $end
$var wire 32 7" resp_data [31:0] $end
$var wire 1 8" resp_valid $end
$var wire 1 ( rst $end
$var wire 32 9" mem_write_data [31:0] $end
$var reg 1 :" done $end
$var reg 1 ;" is_read $end
$var reg 32 <" mem_read_data [31:0] $end
$var reg 1 =" read_write_switch $end
$var reg 32 >" req_addr [31:0] $end
$var reg 1 ?" req_valid $end
$var reg 1 @" state $end
$var reg 32 A" write_data [31:0] $end
$upscope $end
$scope module pc_inst $end
$var wire 1 B branch_en $end
$var wire 23 B" branch_offset [22:0] $end
$var wire 1 # clk $end
$var wire 1 4 nzp_en $end
$var wire 3 C" nzp_flag [2:0] $end
$var wire 3 D" nzp_mask [2:0] $end
$var wire 1 ( rst $end
$var reg 3 E" nzp_reg [2:0] $end
$var reg 32 F" pc_out [31:0] $end
$upscope $end
$scope module reg_file $end
$var wire 32 G" blockDim [31:0] $end
$var wire 32 H" blockIdx [31:0] $end
$var wire 1 # clk $end
$var wire 5 I" r_addr1 [4:0] $end
$var wire 5 J" r_addr2 [4:0] $end
$var wire 5 K" r_addr3 [4:0] $end
$var wire 1 ( rst $end
$var wire 32 L" threadIdx [31:0] $end
$var wire 5 M" w_addr [4:0] $end
$var wire 32 N" w_data [31:0] $end
$var wire 1 ) w_en $end
$var reg 32 O" r_data1 [31:0] $end
$var reg 32 P" r_data2 [31:0] $end
$var reg 32 Q" r_data3 [31:0] $end
$scope begin $ivl_for_loop0 $end
$var integer 32 R" i [31:0] $end
$upscope $end
$scope begin read_port_1 $end
$upscope $end
$scope begin read_port_2 $end
$upscope $end
$scope begin read_port_3 $end
$upscope $end
$upscope $end
$upscope $end
$scope begin thread_gen[3] $end
$var parameter 3 S" i $end
$scope module alu_inst $end
$var wire 6 T" op_select [5:0] $end
$var wire 32 U" operand3 [31:0] $end
$var wire 32 V" operand2 [31:0] $end
$var wire 32 W" operand1 [31:0] $end
$var reg 3 X" nzp_flag [2:0] $end
$var reg 32 Y" result [31:0] $end
$upscope $end
$scope module lsu_inst $end
$var wire 1 # clk $end
$var wire 1 7 core_en $end
$var wire 32 Z" mem_data_address [31:0] $end
$var wire 1 6 mem_read_en $end
$var wire 1 5 mem_write_en $end
$var wire 32 [" resp_data [31:0] $end
$var wire 1 \" resp_valid $end
$var wire 1 ( rst $end
$var wire 32 ]" mem_write_data [31:0] $end
$var reg 1 ^" done $end
$var reg 1 _" is_read $end
$var reg 32 `" mem_read_data [31:0] $end
$var reg 1 a" read_write_switch $end
$var reg 32 b" req_addr [31:0] $end
$var reg 1 c" req_valid $end
$var reg 1 d" state $end
$var reg 32 e" write_data [31:0] $end
$upscope $end
$scope module pc_inst $end
$var wire 1 B branch_en $end
$var wire 23 f" branch_offset [22:0] $end
$var wire 1 # clk $end
$var wire 1 4 nzp_en $end
$var wire 3 g" nzp_flag [2:0] $end
$var wire 3 h" nzp_mask [2:0] $end
$var wire 1 ( rst $end
$var reg 3 i" nzp_reg [2:0] $end
$var reg 32 j" pc_out [31:0] $end
$upscope $end
$scope module reg_file $end
$var wire 32 k" blockDim [31:0] $end
$var wire 32 l" blockIdx [31:0] $end
$var wire 1 # clk $end
$var wire 5 m" r_addr1 [4:0] $end
$var wire 5 n" r_addr2 [4:0] $end
$var wire 5 o" r_addr3 [4:0] $end
$var wire 1 ( rst $end
$var wire 32 p" threadIdx [31:0] $end
$var wire 5 q" w_addr [4:0] $end
$var wire 32 r" w_data [31:0] $end
$var wire 1 ) w_en $end
$var reg 32 s" r_data1 [31:0] $end
$var reg 32 t" r_data2 [31:0] $end
$var reg 32 u" r_data3 [31:0] $end
$scope begin $ivl_for_loop0 $end
$var integer 32 v" i [31:0] $end
$upscope $end
$scope begin read_port_1 $end
$upscope $end
$scope begin read_port_2 $end
$upscope $end
$scope begin read_port_3 $end
$upscope $end
$upscope $end
$upscope $end
$scope module dec $end
$var wire 32 w" instruction [31:0] $end
$var reg 1 B branch_en $end
$var reg 23 x" branch_offset [22:0] $end
$var reg 16 y" imm [15:0] $end
$var reg 1 6 mem_read_en $end
$var reg 1 5 mem_write_en $end
$var reg 1 4 nzp_en $end
$var reg 3 z" nzp_mask [2:0] $end
$var reg 6 {" opcode [5:0] $end
$var reg 5 |" rd_addr [4:0] $end
$var reg 1 . ret $end
$var reg 5 }" rs1_addr [4:0] $end
$var reg 5 ~" rs2_addr [4:0] $end
$var reg 5 !# rs3_addr [4:0] $end
$var reg 1 * write_back_en $end
$upscope $end
$scope module fetch $end
$var wire 1 # clk $end
$var wire 32 "# resp_data [31:0] $end
$var wire 1 ' resp_valid $end
$var wire 1 ( rst $end
$var wire 32 ## pc_value [31:0] $end
$var wire 1 ; core_en $end
$var reg 1 = done $end
$var reg 32 $# instruction [31:0] $end
$var reg 32 %# req_addr [31:0] $end
$var reg 1 0 req_valid $end
$var reg 1 &# state $end
$upscope $end
$scope module shed $end
$var wire 1 # clk $end
$var wire 1 $ core_start $end
$var wire 3 '# current_state [2:0] $end
$var wire 1 = fetcher_done $end
$var wire 4 (# lsu_done [3:0] $end
$var wire 1 6 mem_read_en $end
$var wire 1 5 mem_write_en $end
$var wire 1 . ret $end
$var wire 1 ( rst $end
$var wire 1 )# all_done $end
$var parameter 32 *# NUM_CORES $end
$var parameter 32 +# THREADS_PER_CORE $end
$var parameter 64 ,# TOTAL_THREADS $end
$var reg 1 C block_done $end
$var reg 1 < execute_en $end
$var reg 1 ; fetcher_en $end
$var reg 1 7 lsu_en $end
$var reg 3 -# state [2:0] $end
$var reg 1 ) write_back_en $end
$upscope $end
$upscope $end
$enddefinitions $end
$comment Show the parameter values. $end
$dumpall
b100 ,#
b100 +#
b1 *#
b11 S"
b10 /"
b1 i
b0 E
b100 D
$end
#0
$dumpvars
b0 -#
0)#
b0 (#
b0 '#
0&#
b0 %#
b0 $#
b0 ##
b0 "#
b0 !#
b0 ~"
b0 }"
b0 |"
b0 {"
b0 z"
b0 y"
b0 x"
b0 w"
b11101 v"
b0 u"
b0 t"
b0 s"
b0 r"
b0 q"
b11 p"
b0 o"
b0 n"
b0 m"
b0 l"
b100 k"
b0 j"
b0 i"
b0 h"
b0 g"
b0 f"
bx e"
0d"
0c"
b0 b"
xa"
b0 `"
0_"
0^"
b0 ]"
0\"
b0 ["
b0 Z"
b0 Y"
b0 X"
b0 W"
b0 V"
b0 U"
b0 T"
b11101 R"
b0 Q"
b0 P"
b0 O"
b0 N"
b0 M"
b10 L"
b0 K"
b0 J"
b0 I"
b0 H"
b100 G"
b0 F"
b0 E"
b0 D"
b0 C"
b0 B"
bx A"
0@"
0?"
b0 >"
x="
b0 <"
0;"
0:"
b0 9"
08"
b0 7"
b0 6"
b0 5"
b0 4"
b0 3"
b0 2"
b0 1"
b0 0"
b11101 ."
b0 -"
b0 ,"
b0 +"
b0 *"
b0 )"
b1 ("
b0 '"
b0 &"
b0 %"
b0 $"
b100 #"
b0 ""
b0 !"
b0 ~
b0 }
b0 |
bx {
0z
0y
b0 x
xw
b0 v
0u
0t
b0 s
0r
b0 q
b0 p
b0 o
b0 n
b0 m
b0 l
b0 k
b0 j
b11101 h
b0 g
b0 f
b0 e
b0 d
b0 c
b0 b
b0 a
b0 `
b0 _
b0 ^
b100 ]
b0 \
b0 [
b0 Z
b0 Y
b0 X
bx W
0V
0U
b0 T
xS
b0 R
0Q
0P
b0 O
0N
b0 M
b0 L
b0 K
b0 J
b0 I
b0 H
b0 G
b0 F
0C
0B
b0 A
b0 @
bx ?
b0 >
0=
0<
0;
b0 :
b0 9
b0 8
07
06
05
04
b0 3
b0 2
b0 1
00
b0 /
0.
b0 -
b0 ,
b0 +
0*
0)
1(
0'
b0 &
b0 %
0$
1#
b0 "
b100 !
$end
#5000
0#
#10000
1$
0(
b11101 v"
b11101 R"
b11101 ."
b11101 h
1#
#15000
0#
#20000
b1 \
b1 ##
b1 ""
b1 F"
b1 j"
b1 @
b1 '#
b1 -#
1;
1#
#25000
0#
#30000
1&#
10
b1 1
b1 %#
0;
b10 j"
b10 F"
b10 ""
b10 \
b10 ##
1#
#31000
b1001000000000000000000000000000 &
b1001000000000000000000000000000 "#
1'
#35000
0#
#40000
1.
b10010 2
b10010 F
b10010 j
b10010 0"
b10010 T"
b10010 {"
b11 \
b11 ##
b11 ""
b11 F"
b11 j"
0&#
1=
b1001000000000000000000000000000 9
b1001000000000000000000000000000 w"
b1001000000000000000000000000000 $#
00
1#
#41000
0'
#45000
0#
#50000
0=
b10 @
b10 '#
b10 -#
b100 j"
b100 F"
b100 ""
b100 \
b100 ##
1#
#55000
0#
#60000
b101 \
b101 ##
b101 ""
b101 F"
b101 j"
b101 @
b101 '#
b101 -#
1#
#65000
0#
#70000
b110 @
b110 '#
b110 -#
1<
b110 j"
b110 F"
b110 ""
b110 \
b110 ##
1#
#75000
0#
#80000
b111 \
b111 ##
b111 ""
b111 F"
b111 j"
1)
b0 @
b0 '#
b0 -#
1C
0<
1#
#85000
0#
#90000
b1 @
b1 '#
b1 -#
1;
0C
0)
b1000 j"
b1000 F"
b1000 ""
b1000 \
b1000 ##
1#
#95000
0#
#100000
b1001 \
b1001 ##
b1001 ""
b1001 F"
b1001 j"
0;
1&#
10
b1000 1
b1000 %#
1#
#101000
b0 &
b0 "#
1'
#105000
0#
#110000
0.
b0 2
b0 F
b0 j
b0 0"
b0 T"
b0 {"
0&#
1=
b0 9
b0 w"
b0 $#
00
b1010 j"
b1010 F"
b1010 ""
b1010 \
b1010 ##
1#
#111000
0'
#115000
0#
#120000
b1011 \
b1011 ##
b1011 ""
b1011 F"
b1011 j"
b10 @
b10 '#
b10 -#
0=
1#
#125000
0#
#130000
b101 @
b101 '#
b101 -#
b1100 j"
b1100 F"
b1100 ""
b1100 \
b1100 ##
1#
#135000
0#
#140000
b1101 \
b1101 ##
b1101 ""
b1101 F"
b1101 j"
b110 @
b110 '#
b110 -#
1<
1#
#145000
0#
#150000
1)
b1 @
b1 '#
b1 -#
0<
b1110 j"
b1110 F"
b1110 ""
b1110 \
b1110 ##
1#
#155000
0#
#160000
b1111 \
b1111 ##
b1111 ""
b1111 F"
b1111 j"
0)
1#
#165000
0#
#170000
b10000 j"
b10000 F"
b10000 ""
b10000 \
b10000 ##
1#
#175000
0#
#180000
b10001 \
b10001 ##
b10001 ""
b10001 F"
b10001 j"
1#
#185000
0#
#190000
b10010 j"
b10010 F"
b10010 ""
b10010 \
b10010 ##
1#
#195000
0#
#200000
b10011 \
b10011 ##
b10011 ""
b10011 F"
b10011 j"
1#
#205000
0#
#210000
b10100 j"
b10100 F"
b10100 ""
b10100 \
b10100 ##
1#
#215000
0#
#220000
b10101 \
b10101 ##
b10101 ""
b10101 F"
b10101 j"
1#
#225000
0#
#230000
b10110 j"
b10110 F"
b10110 ""
b10110 \
b10110 ##
1#
#235000
0#
#240000
b10111 \
b10111 ##
b10111 ""
b10111 F"
b10111 j"
1#
#245000
0#
#250000
b11000 j"
b11000 F"
b11000 ""
b11000 \
b11000 ##
1#
#255000
0#
#260000
b11001 \
b11001 ##
b11001 ""
b11001 F"
b11001 j"
1#
#265000
0#
#270000
b11010 j"
b11010 F"
b11010 ""
b11010 \
b11010 ##
1#
#275000
0#
#280000
b11011 \
b11011 ##
b11011 ""
b11011 F"
b11011 j"
1#
#285000
0#
#290000
b11100 j"
b11100 F"
b11100 ""
b11100 \
b11100 ##
1#
#295000
0#
#300000
b11101 \
b11101 ##
b11101 ""
b11101 F"
b11101 j"
1#
#305000
0#
#310000
b11110 j"
b11110 F"
b11110 ""
b11110 \
b11110 ##
1#
#315000
0#
#320000
b11111 \
b11111 ##
b11111 ""
b11111 F"
b11111 j"
1#
#325000
0#
#330000
b100000 j"
b100000 F"
b100000 ""
b100000 \
b100000 ##
1#
#335000
0#
#340000
b100001 \
b100001 ##
b100001 ""
b100001 F"
b100001 j"
1#
#345000
0#
#350000
b100010 j"
b100010 F"
b100010 ""
b100010 \
b100010 ##
1#
#355000
0#
#360000
b100011 \
b100011 ##
b100011 ""
b100011 F"
b100011 j"
1#
#365000
0#
#370000
b100100 j"
b100100 F"
b100100 ""
b100100 \
b100100 ##
1#
#375000
0#
#380000
b100101 \
b100101 ##
b100101 ""
b100101 F"
b100101 j"
1#
#385000
0#
#390000
b100110 j"
b100110 F"
b100110 ""
b100110 \
b100110 ##
1#
#395000
0#
#400000
b100111 \
b100111 ##
b100111 ""
b100111 F"
b100111 j"
1#
#405000
0#
#410000
b101000 j"
b101000 F"
b101000 ""
b101000 \
b101000 ##
1#
#415000
0#
#420000
b101001 \
b101001 ##
b101001 ""
b101001 F"
b101001 j"
1#
#425000
0#
#430000
b101010 j"
b101010 F"
b101010 ""
b101010 \
b101010 ##
1#
#435000
0#
#440000
b101011 \
b101011 ##
b101011 ""
b101011 F"
b101011 j"
1#
#445000
0#
#450000
b101100 j"
b101100 F"
b101100 ""
b101100 \
b101100 ##
1#
#455000
0#
#460000
b101101 \
b101101 ##
b101101 ""
b101101 F"
b101101 j"
1#
#465000
0#
#470000
b101110 j"
b101110 F"
b101110 ""
b101110 \
b101110 ##
1#
#475000
0#
#480000
b101111 \
b101111 ##
b101111 ""
b101111 F"
b101111 j"
1#
#485000
0#
#490000
b110000 j"
b110000 F"
b110000 ""
b110000 \
b110000 ##
1#
#495000
0#
#500000
b110001 \
b110001 ##
b110001 ""
b110001 F"
b110001 j"
1#
#505000
0#
#510000
b110010 j"
b110010 F"
b110010 ""
b110010 \
b110010 ##
1#
#515000
0#
#520000
b110011 \
b110011 ##
b110011 ""
b110011 F"
b110011 j"
1#
#525000
0#
#530000
b110100 j"
b110100 F"
b110100 ""
b110100 \
b110100 ##
1#
#535000
0#
#540000
b110101 \
b110101 ##
b110101 ""
b110101 F"
b110101 j"
1#
#545000
0#
#550000
b110110 j"
b110110 F"
b110110 ""
b110110 \
b110110 ##
1#
#555000
0#
#560000
b110111 \
b110111 ##
b110111 ""
b110111 F"
b110111 j"
1#
#565000
0#
#570000
b111000 j"
b111000 F"
b111000 ""
b111000 \
b111000 ##
1#
#575000
0#
#580000
b111001 \
b111001 ##
b111001 ""
b111001 F"
b111001 j"
1#
